﻿game_object_locator={
	name="angkor_wat_locator"
	clamp_to_water_level=no
	render_under_water=no
	generated_content=no
	layer="static"
	instances={
		{
			id=1
			position={ 6465.549805 1.810000 1825.500000 }
			rotation={ -0.000000 -0.000000 -0.000000 0.000000 }
			scale={ 2.000000 2.000000 2.000000 }
		}
	}
}
game_object_locator={
	name="argebam_locator"
	clamp_to_water_level=no
	render_under_water=no
	generated_content=no
	layer="static"
	instances={
		{
			id=1
			position={ 5435.600098 0.000000 2195.844971 }
			rotation={ 0.000000 -0.091850 0.000000 0.995000 }
			scale={ 1.000000 1.000000 1.000000 }
		}
	}
}
game_object_locator={
	name="big_ben_locator"
	clamp_to_water_level=no
	render_under_water=no
	generated_content=no
	layer="static"
	instances={
		{
			id=1
			position={ 4090.840088 0.000000 2798.989990 }
			rotation={ -0.000000 -0.000000 -0.000000 0.000000 }
			scale={ 2.000000 2.000000 2.000000 }
		}
	}
}
game_object_locator={
	name="canal_panama_locator"
	clamp_to_water_level=no
	render_under_water=yes
	generated_content=no
	layer="static"
	instances={
		{
			id=1
			position={ 2275.778076 0.000000 1717.770996 }
			rotation={ 0.000000 0.404315 0.000000 -0.914000 }
			scale={ 1.000000 1.000000 1.000000 }
		}
	}
}
game_object_locator={
	name="canal_suez_locator"
	clamp_to_water_level=no
	render_under_water=yes
	generated_content=no
	layer="static"
	instances={
		{
			id=1
			position={ 5410.337891 0.000000 2436.570312 }
			rotation={ 0.000000 0.658000 0.000000 0.752000 }
			scale={ 1.000000 1.000000 1.000000 }
		}
	}
}
game_object_locator={
	name="chichen_itza_locator"
	clamp_to_water_level=no
	render_under_water=no
	generated_content=no
	layer="static"
	instances={
		{
			id=1
			position={ 2078.000000 0.000000 1988.000000 }
			rotation={ 0.000000 -0.300706 0.000000 0.953717 }
			scale={ 1.000000 1.000000 1.000000 }
		}
	}
}
game_object_locator={
	name="easter_island_heads_locator"
	clamp_to_water_level=no
	render_under_water=no
	generated_content=no
	layer="static"
	instances={
		{
			id=1
			position={ 1602.531250 0.000000 878.737122 }
			rotation={ 0.000000 0.000000 0.000000 1.000000 }
			scale={ 1.000000 1.000000 1.000000 }
		}
	}
}
game_object_locator={
	name="eiffel_tower_locator"
	clamp_to_water_level=no
	render_under_water=no
	generated_content=no
	layer="static"
	instances={
		{
			id=1
			position={ 4337.982422 0.000000 2725.977295 }
			rotation={ -0.000000 -0.000000 -0.000000 0.000000 }
			scale={ 1.000000 1.000000 1.000000 }
		}
	}
}
game_object_locator={
	name="eye_of_sahara_locator"
	clamp_to_water_level=no
	render_under_water=no
	generated_content=no
	layer="static"
	instances={
		{
			id=1
			position={ 3838.021484 0.000000 1999.368774 }
			rotation={ 0.000000 0.000000 0.000000 1.000000 }
			scale={ 1.000000 1.000000 1.000000 }
		}
	}
}
game_object_locator={
	name="forbidden_city_locator"
	clamp_to_water_level=no
	render_under_water=no
	generated_content=no
	layer="static"
	instances={
		{
			id=1
			position={ 6746.410156 0.000000 2477.649902 }
			rotation={ 0.000000 0.000000 0.000000 0.000000 }
			scale={ 1.500000 1.500000 1.500000 }
		}
	}
}
game_object_locator={
	name="giza_necropolis_locator"
	clamp_to_water_level=no
	render_under_water=no
	generated_content=no
	layer="static"
	instances={
		{
			id=1
			position={ 4793.680176 0.000000 2208.621826 }
			rotation={ 0.000000 0.823280 0.000000 -0.720155 }
			scale={ 1.000000 1.000000 1.000000 }
		}
	}
}
game_object_locator={
	name="hagia_sophia_locator"
	clamp_to_water_level=no
	render_under_water=no
	generated_content=no
	layer="static"
	instances={
		{
			id=1
			position={ 4751.580078 0.000000 2503.310059 }
			rotation={ -0.000000 -0.000000 -0.000000 0.000000 }
			scale={ 2.000000 2.000000 2.000000 }
		}
	}
}
game_object_locator={
	name="khaju_bridge_locator"
	clamp_to_water_level=no
	render_under_water=no
	generated_content=no
	layer="static"
	instances={
		{
			id=1
			position={ 5282.500000 0.000000 2281.000000 }
			rotation={ 0.000000 0.600000 0.000000 -0.800000 }
			scale={ 1.000000 1.000000 1.000000 }
		}
	}
}
game_object_locator={
	name="machu_picchu_locator"
	clamp_to_water_level=no
	render_under_water=no
	generated_content=no
	layer="static"
	instances={
		{
			id=1
			position={ 2436.326660 -0.285645 1213.135254 }
			rotation={ 0.000000 -0.057646 0.000000 0.998337 }
			scale={ 0.111245 0.111245 0.111245 }
		}
	}
}
game_object_locator={
	name="mosque_of_djenne_locator"
	clamp_to_water_level=no
	render_under_water=no
	generated_content=no
	layer="static"
	instances={
		{
			id=1
			position={ 3983.100098 0.000000 1826.300049 }
			rotation={ -0.000000 -0.000000 -0.000000 0.000000 }
			scale={ 3.000000 3.000000 3.000000 }
		}
	}
}
game_object_locator={
	name="petra_locator"
	clamp_to_water_level=no
	render_under_water=no
	generated_content=no
	layer="static"
	instances={
		{
			id=1
			position={ 4911.708008 -0.735596 2226.567139 }
			rotation={ -0.000000 0.849451 -0.000000 -0.527667 }
			scale={ 1.464854 1.464854 1.464854 }
		}
	}
}
game_object_locator={
	name="saint_basils_cathedral_locator"
	clamp_to_water_level=no
	render_under_water=no
	generated_content=no
	layer="static"
	instances={
		{
			id=1
			position={ 4952.930176 0.000000 2929.179932 }
			rotation={ -0.000000 -0.000000 -0.000000 0.000000 }
			scale={ 3.000000 3.000000 3.000000 }
		}
	}
}
game_object_locator={
	name="statue_of_liberty_locator"
	clamp_to_water_level=yes
	render_under_water=yes
	generated_content=no
	layer="static"
	instances={
		{
			id=1
			position={ 2414.729980 0.000000 2487.379883 }
			rotation={ -0.000000 -0.000000 -0.000000 0.000000 }
			scale={ 2.000000 2.000000 2.000000 }
		}
	}
}
game_object_locator={
	name="taj_mahal_locator"
	clamp_to_water_level=no
	render_under_water=no
	generated_content=no
	layer="static"
	instances={
		{
			id=1
			position={ 5870.198242 0.000000 2137.543701 }
			rotation={ -0.000000 -0.000000 -0.000000 0.000000 }
			scale={ 1.500000 1.500000 1.500000 }
		}
	}
}
game_object_locator={
	name="vatican_city_locator"
	clamp_to_water_level=no
	render_under_water=no
	generated_content=no
	layer="static"
	instances={
		{
			id=1
			position={ 4379.149902 0.000000 2533.780029 }
			rotation={ -0.000000 -0.000000 -0.000000 0.000000 }
			scale={ 0.750000 0.750000 0.750000 }
		}
	}
}
game_object_locator={
	name="white_house_locator"
	clamp_to_water_level=no
	render_under_water=no
	generated_content=no
	layer="static"
	instances={
		{
			id=1
			position={ 2343.520020 0.000000 2439.350098 }
			rotation={ -0.000000 -0.000000 -0.000000 0.000000 }
			scale={ 2.000000 2.000000 2.000000 }
		}
	}
}
